{
  "name": "tutorial-world",
  "title": "Foundry VTT Tutorial world",
  "description": "",
  "authors": [],
  "flags": {},
  "version": "1.2",
  "scripts": [
    "./intro.js"
  ],
  "esmodules": [
    "./tutorial.js"
  ],
  "styles": [
    "./introjs.css",
    "./foundry-introjs.css",
    "./tutorial.css"
  ],
  "languages": [
    {
      "lang": "en",
      "name": "English",
      "path": "./languages/en.json"
    }
  ],
  "packs": [],
  "system": "worldbuilding",
  "dependencies": [],
  "socket": false,
  "protected": false,
  "coreVersion": "9.220",
  "resetKeys": false,
  "safeMode": false,
  "systemVersion": "0.5.0",
  "manifest": "https://gitlab.com/foundrynet/tutorial-world/-/raw/master/world.json",
  "download": "https://gitlab.com/foundrynet/tutorial-world/-/archive/v1.1/tutorial-world-v1.2.zip"
}
